org/rackspira/kristiawan/akakomsiakadcrawl/service/KartuRencanaStudiService.class
org/rackspira/kristiawan/akakomsiakadcrawl/service/UserService.class
org/rackspira/kristiawan/akakomsiakadcrawl/model/KartuRencanaStudiJadwal.class
org/rackspira/kristiawan/akakomsiakadcrawl/controller/BaseController.class
org/rackspira/kristiawan/akakomsiakadcrawl/configuration/WebConfig.class
org/rackspira/kristiawan/akakomsiakadcrawl/App.class
org/rackspira/kristiawan/akakomsiakadcrawl/model/TranskipNilai.class
org/rackspira/kristiawan/akakomsiakadcrawl/model/MataKuliah.class
org/rackspira/kristiawan/akakomsiakadcrawl/configuration/WebInitializer.class
org/rackspira/kristiawan/akakomsiakadcrawl/model/User.class
org/rackspira/kristiawan/akakomsiakadcrawl/model/KartuRencanaStudi.class
org/rackspira/kristiawan/akakomsiakadcrawl/model/Semester.class
org/rackspira/kristiawan/akakomsiakadcrawl/model/TranskipNilaiDetail.class
org/rackspira/kristiawan/akakomsiakadcrawl/service/TranskipNilaiService.class
org/rackspira/kristiawan/akakomsiakadcrawl/service/BaseService.class
org/rackspira/kristiawan/akakomsiakadcrawl/controller/UserController.class
org/rackspira/kristiawan/akakomsiakadcrawl/controller/KartuRencanaStudiController.class
org/rackspira/kristiawan/akakomsiakadcrawl/model/Profile.class
org/rackspira/kristiawan/akakomsiakadcrawl/model/KartuHasilStudi.class
org/rackspira/kristiawan/akakomsiakadcrawl/model/Presensi.class
org/rackspira/kristiawan/akakomsiakadcrawl/service/AppService.class
org/rackspira/kristiawan/akakomsiakadcrawl/service/ProfileService.class
org/rackspira/kristiawan/akakomsiakadcrawl/common/WebUrl.class
org/rackspira/kristiawan/akakomsiakadcrawl/service/KartuHasilStudiService.class
org/rackspira/kristiawan/akakomsiakadcrawl/controller/PresensiController.class
org/rackspira/kristiawan/akakomsiakadcrawl/controller/TranskipNilaiController.class
org/rackspira/kristiawan/akakomsiakadcrawl/common/Constants.class
org/rackspira/kristiawan/akakomsiakadcrawl/model/KartuHasilStudiDetail.class
org/rackspira/kristiawan/akakomsiakadcrawl/controller/KartuHasilStudiController.class
org/rackspira/kristiawan/akakomsiakadcrawl/model/PresensiDetail.class
org/rackspira/kristiawan/akakomsiakadcrawl/service/PresensiService.class
